<svg width="61" height="61" viewBox="0 0 61 61" fill="none" xmlns="http://www.w3.org/2000/svg">
<path d="M30.778 0.798767C14.2111 0.798767 0.778015 14.2318 0.778015 30.7988C0.778015 47.3657 14.2111 60.7988 30.778 60.7988C47.345 60.7988 60.778 47.3657 60.778 30.7988C60.778 14.2318 47.345 0.798767 30.778 0.798767ZM40.4276 31.2608L25.8026 41.9014C25.7224 41.9591 25.6279 41.9935 25.5294 42.0009C25.431 42.0083 25.3324 41.9884 25.2445 41.9434C25.1566 41.8984 25.0828 41.8301 25.0312 41.7459C24.9797 41.6617 24.9523 41.5649 24.9521 41.4662V20.1983C24.9518 20.0994 24.9789 20.0023 25.0303 19.9178C25.0818 19.8333 25.1557 19.7648 25.2438 19.7197C25.3318 19.6746 25.4307 19.6548 25.5293 19.6625C25.6279 19.6701 25.7225 19.7049 25.8026 19.7631L40.4276 30.397C40.4967 30.4458 40.553 30.5106 40.5919 30.5857C40.6308 30.6609 40.6511 30.7443 40.6511 30.8289C40.6511 30.9135 40.6308 30.9969 40.5919 31.0721C40.553 31.1472 40.4967 31.212 40.4276 31.2608Z" fill="#ED686B"/>
</svg>
